%YAML 1.1
%TAG !u! tag:unity3d.com,2011:
--- !u!162 &1
EditorUserSettings:
  m_ObjectHideFlags: 0
  serializedVersion: 4
  m_ConfigSettings:
    RecentlyUsedScenePath-0:
      value: 2242470311464608292f013104264d14171a57192f2d28353e663932f6e1133dece224e8f33330327625ea32012c002bf7281c02fa0f0305163af40214ec5e061fcc0cdc
      flags: 0
    RecentlyUsedScenePath-1:
      value: 2242470311464608292f013104264d14171a57192f2d28353e663932f6e1133dece224e8f33330327625ea32012c002bf7281c02fa0f0305163af40214ec36011ec83fc015e22c33e55709c0c409c8
      flags: 0
    RecentlyUsedScenePath-2:
      value: 2242470311464608292f013104264d14171a57192f2d28353e663932f6e1133dece224e8f33330327625ea32012c002bf73e0c19e40a03052507f10b02b1051d18d101
      flags: 0
    RecentlyUsedScenePath-3:
      value: 2242470311464608292f013104264d14171a57192f2d28353e663932f6e1133dece224e8f33330327625ea32012c002bf7281c02fa0f0305163af40214ec36011ec837e730860a12c20d05
      flags: 0
    RecentlyUsedScenePath-4:
      value: 2242470311464608292f013104264d14171a57192f2d28353e663932f6e1133dece224e8f33330327636ea2f100a0833f719471ef8021e12
      flags: 0
    RecentlyUsedScenePath-5:
      value: 2242470311464608292f013104264d14171a57192f2d28353e664e17c3ed272ce7f532e8ea742a323016f6
      flags: 0
    RecentlyUsedScenePath-6:
      value: 2242470311464608292f013104264d14171a57192f2d28353e663932f6e1133dece224e8f33330327625ea32012c002bf7281c02fa0f0305163af40214ec36011ec82bc61fc61a52de1715dad4
      flags: 0
    UnityEditor.ShaderGraph.Blackboard:
      value: 18135939215a0a5004000b0e15254b524c030a3f2964643d120d1230e9e93a3fd6e826abbd2e2d293c4ead313b08042de6030a0afa240c0d020be94c4bac5e435d8715fa32c70d15d11612dacc11fee5d3c5d1fe9ab1bf968e93e2ffcbc3e7e2f0b3ffe0e8b0be9af8ffaeffff8e85dd8390e3949c8899daa7
      flags: 0
    UnityEditor.ShaderGraph.FloatingWindowsLayout2:
      value: 181344140043005e1a220d3b1f364b524c0c5a27130c293326201334cee5322ca0bd30e8eb293a707b0fd0180b3d0a36fc0d3d04e649500d1002ee0b5dbd1d2c27c00ad113cb1e10e41f1addc80993b9859884a69ae6d8f0d1cda9e8fbfefaf9f9dea3fdb9ade882f0ffb0e1e380cafbf2c3adc18e9cd285a2908b87ee819c8395949c9483d38b8d97ddbd90bf
      flags: 0
    UnityEditor.ShaderGraph.InspectorWindow:
      value: 18135939215a0a5004000b0e15254b524c1119263f2d6a722016393ce1eb3d36e5d339f9a5602b2e2c07a37e0901373ae01e0008f707250d171df81a53a5485d41895ac825e0100ec20313c0d91cddccd3d0c7efcca9bd80908fecb0f9cfddf1eff4e7a1b1eae482f0fcaee1e1928b86d888ed969b938797a7cf
      flags: 0
    UnityRemoteDevice:
      value: 225f4d46245b0d4902070862342649191512
      flags: 0
    vcSharedLogLevel:
      value: 0d5e400f0650
      flags: 0
  m_VCAutomaticAdd: 1
  m_VCDebugCom: 0
  m_VCDebugCmd: 0
  m_VCDebugOut: 0
  m_SemanticMergeMode: 2
  m_VCShowFailedCheckout: 1
  m_VCOverwriteFailedCheckoutAssets: 1
  m_VCProjectOverlayIcons: 1
  m_VCHierarchyOverlayIcons: 1
  m_VCOtherOverlayIcons: 1
  m_VCAllowAsyncUpdate: 0
