%YAML 1.1
%TAG !u! tag:unity3d.com,2011:
--- !u!1 &927853791765686717
GameObject:
  m_ObjectHideFlags: 0
  m_CorrespondingSourceObject: {fileID: 0}
  m_PrefabInstance: {fileID: 0}
  m_PrefabAsset: {fileID: 0}
  serializedVersion: 6
  m_Component:
  - component: {fileID: 927853791765686707}
  - component: {fileID: 927853791765686706}
  - component: {fileID: 8852100570403522361}
  m_Layer: 0
  m_Name: CameraModeChanger
  m_TagString: Untagged
  m_Icon: {fileID: 0}
  m_NavMeshLayer: 0
  m_StaticEditorFlags: 0
  m_IsActive: 1
--- !u!4 &927853791765686707
Transform:
  m_ObjectHideFlags: 0
  m_CorrespondingSourceObject: {fileID: 0}
  m_PrefabInstance: {fileID: 0}
  m_PrefabAsset: {fileID: 0}
  m_GameObject: {fileID: 927853791765686717}
  m_LocalRotation: {x: 0, y: 0, z: 0, w: 1}
  m_LocalPosition: {x: 0, y: 0, z: 0}
  m_LocalScale: {x: 1, y: 1, z: 1}
  m_Children:
  - {fileID: 5856457975381255974}
  - {fileID: 4093344675420705345}
  - {fileID: 4925695191793394054}
  m_Father: {fileID: 0}
  m_RootOrder: 0
  m_LocalEulerAnglesHint: {x: 37, y: -15.750001, z: 0}
--- !u!114 &927853791765686706
MonoBehaviour:
  m_ObjectHideFlags: 0
  m_CorrespondingSourceObject: {fileID: 0}
  m_PrefabInstance: {fileID: 0}
  m_PrefabAsset: {fileID: 0}
  m_GameObject: {fileID: 927853791765686717}
  m_Enabled: 1
  m_EditorHideFlags: 0
  m_Script: {fileID: 11500000, guid: fcd6698e8ac0d5340a98150de5072d1d, type: 3}
  m_Name: 
  m_EditorClassIdentifier: 
  latLongStringEvent: {fileID: 11400000, guid: ec641a48395f5104480442f668b4c7f2, type: 2}
  godViewCam: {fileID: 4093344675420705374}
  groundTransitionOffset: 0
--- !u!114 &8852100570403522361
MonoBehaviour:
  m_ObjectHideFlags: 0
  m_CorrespondingSourceObject: {fileID: 0}
  m_PrefabInstance: {fileID: 0}
  m_PrefabAsset: {fileID: 0}
  m_GameObject: {fileID: 927853791765686717}
  m_Enabled: 1
  m_EditorHideFlags: 0
  m_Script: {fileID: 11500000, guid: 9ccd2cfba1d1ecd42ac89eab20cadfa3, type: 3}
  m_Name: 
  m_EditorClassIdentifier: 
  FPSCam: {fileID: 5681208571209172345}
  OnMoved:
    m_PersistentCalls:
      m_Calls:
      - m_Target: {fileID: 4694849482603452138}
        m_TargetAssemblyTypeName: 
        m_MethodName: set_enabled
        m_Mode: 6
        m_Arguments:
          m_ObjectArgument: {fileID: 0}
          m_ObjectArgumentAssemblyTypeName: UnityEngine.Object, UnityEngine
          m_IntArgument: 0
          m_FloatArgument: 0
          m_StringArgument: 
          m_BoolArgument: 1
        m_CallState: 2
      - m_Target: {fileID: 250227015413713081}
        m_TargetAssemblyTypeName: 
        m_MethodName: set_enabled
        m_Mode: 6
        m_Arguments:
          m_ObjectArgument: {fileID: 0}
          m_ObjectArgumentAssemblyTypeName: UnityEngine.Object, UnityEngine
          m_IntArgument: 0
          m_FloatArgument: 0
          m_StringArgument: 
          m_BoolArgument: 1
        m_CallState: 2
  OnReverseMoved:
    m_PersistentCalls:
      m_Calls:
      - m_Target: {fileID: 4694849482603452138}
        m_TargetAssemblyTypeName: 
        m_MethodName: set_enabled
        m_Mode: 6
        m_Arguments:
          m_ObjectArgument: {fileID: 0}
          m_ObjectArgumentAssemblyTypeName: UnityEngine.Object, UnityEngine
          m_IntArgument: 0
          m_FloatArgument: 0
          m_StringArgument: 
          m_BoolArgument: 0
        m_CallState: 2
      - m_Target: {fileID: 250227015413713081}
        m_TargetAssemblyTypeName: 
        m_MethodName: set_enabled
        m_Mode: 6
        m_Arguments:
          m_ObjectArgument: {fileID: 0}
          m_ObjectArgumentAssemblyTypeName: UnityEngine.Object, UnityEngine
          m_IntArgument: 0
          m_FloatArgument: 0
          m_StringArgument: 
          m_BoolArgument: 0
        m_CallState: 2
  OnMovedRotation:
    m_PersistentCalls:
      m_Calls:
      - m_Target: {fileID: 4694849482603452138}
        m_TargetAssemblyTypeName: 
        m_MethodName: OnRotation
        m_Mode: 0
        m_Arguments:
          m_ObjectArgument: {fileID: 0}
          m_ObjectArgumentAssemblyTypeName: UnityEngine.Object, UnityEngine
          m_IntArgument: 0
          m_FloatArgument: 0
          m_StringArgument: 
          m_BoolArgument: 0
        m_CallState: 2
  stopMovement: 0
--- !u!1001 &3319163042246165390
PrefabInstance:
  m_ObjectHideFlags: 0
  serializedVersion: 2
  m_Modification:
    m_TransformParent: {fileID: 927853791765686707}
    m_Modifications:
    - target: {fileID: 3272134606442253111, guid: ab6da9ff3a357104f884fac01a2076e8,
        type: 3}
      propertyPath: m_Enabled
      value: 0
      objectReference: {fileID: 0}
    - target: {fileID: 5101375191303853095, guid: ab6da9ff3a357104f884fac01a2076e8,
        type: 3}
      propertyPath: m_Name
      value: FirstPersonCamera
      objectReference: {fileID: 0}
    - target: {fileID: 5101375191303853095, guid: ab6da9ff3a357104f884fac01a2076e8,
        type: 3}
      propertyPath: m_IsActive
      value: 0
      objectReference: {fileID: 0}
    - target: {fileID: 8014012090906924388, guid: ab6da9ff3a357104f884fac01a2076e8,
        type: 3}
      propertyPath: m_Enabled
      value: 0
      objectReference: {fileID: 0}
    - target: {fileID: 8014012090906924388, guid: ab6da9ff3a357104f884fac01a2076e8,
        type: 3}
      propertyPath: disableWhenActive.Array.data[0]
      value: 
      objectReference: {fileID: 0}
    - target: {fileID: 9175618376203658408, guid: ab6da9ff3a357104f884fac01a2076e8,
        type: 3}
      propertyPath: m_RootOrder
      value: 0
      objectReference: {fileID: 0}
    - target: {fileID: 9175618376203658408, guid: ab6da9ff3a357104f884fac01a2076e8,
        type: 3}
      propertyPath: m_LocalRotation.w
      value: 1
      objectReference: {fileID: 0}
    - target: {fileID: 9175618376203658408, guid: ab6da9ff3a357104f884fac01a2076e8,
        type: 3}
      propertyPath: m_LocalRotation.x
      value: -0
      objectReference: {fileID: 0}
    - target: {fileID: 9175618376203658408, guid: ab6da9ff3a357104f884fac01a2076e8,
        type: 3}
      propertyPath: m_LocalRotation.y
      value: -0
      objectReference: {fileID: 0}
    - target: {fileID: 9175618376203658408, guid: ab6da9ff3a357104f884fac01a2076e8,
        type: 3}
      propertyPath: m_LocalRotation.z
      value: -0
      objectReference: {fileID: 0}
    - target: {fileID: 9175618376203658408, guid: ab6da9ff3a357104f884fac01a2076e8,
        type: 3}
      propertyPath: m_LocalEulerAnglesHint.x
      value: 0
      objectReference: {fileID: 0}
    - target: {fileID: 9175618376203658408, guid: ab6da9ff3a357104f884fac01a2076e8,
        type: 3}
      propertyPath: m_LocalEulerAnglesHint.y
      value: 0
      objectReference: {fileID: 0}
    - target: {fileID: 9175618376203658408, guid: ab6da9ff3a357104f884fac01a2076e8,
        type: 3}
      propertyPath: m_LocalEulerAnglesHint.z
      value: 0
      objectReference: {fileID: 0}
    m_RemovedComponents: []
  m_SourcePrefab: {fileID: 100100000, guid: ab6da9ff3a357104f884fac01a2076e8, type: 3}
--- !u!4 &5856457975381255974 stripped
Transform:
  m_CorrespondingSourceObject: {fileID: 9175618376203658408, guid: ab6da9ff3a357104f884fac01a2076e8,
    type: 3}
  m_PrefabInstance: {fileID: 3319163042246165390}
  m_PrefabAsset: {fileID: 0}
--- !u!114 &4694849482603452138 stripped
MonoBehaviour:
  m_CorrespondingSourceObject: {fileID: 8014012090906924388, guid: ab6da9ff3a357104f884fac01a2076e8,
    type: 3}
  m_PrefabInstance: {fileID: 3319163042246165390}
  m_PrefabAsset: {fileID: 0}
  m_GameObject: {fileID: 0}
  m_Enabled: 0
  m_EditorHideFlags: 0
  m_Script: {fileID: 11500000, guid: 6b5095b9a18dff249aeb8c84bcd50fe3, type: 3}
  m_Name: 
  m_EditorClassIdentifier: 
--- !u!114 &250227015413713081 stripped
MonoBehaviour:
  m_CorrespondingSourceObject: {fileID: 3272134606442253111, guid: ab6da9ff3a357104f884fac01a2076e8,
    type: 3}
  m_PrefabInstance: {fileID: 3319163042246165390}
  m_PrefabAsset: {fileID: 0}
  m_GameObject: {fileID: 0}
  m_Enabled: 0
  m_EditorHideFlags: 0
  m_Script: {fileID: 11500000, guid: 7bd73c13c2739cc4ba881917b614a0f0, type: 3}
  m_Name: 
  m_EditorClassIdentifier: 
--- !u!20 &5681208571209172345 stripped
Camera:
  m_CorrespondingSourceObject: {fileID: -2249622592331462921, guid: ab6da9ff3a357104f884fac01a2076e8,
    type: 3}
  m_PrefabInstance: {fileID: 3319163042246165390}
  m_PrefabAsset: {fileID: 0}
--- !u!1001 &6603153819222572365
PrefabInstance:
  m_ObjectHideFlags: 0
  serializedVersion: 2
  m_Modification:
    m_TransformParent: {fileID: 927853791765686707}
    m_Modifications:
    - target: {fileID: 7164494881010118412, guid: a47e589561ad72342980f70c742130aa,
        type: 3}
      propertyPath: m_RootOrder
      value: 1
      objectReference: {fileID: 0}
    - target: {fileID: 7164494881010118412, guid: a47e589561ad72342980f70c742130aa,
        type: 3}
      propertyPath: m_LocalRotation.w
      value: -0.8870208
      objectReference: {fileID: 0}
    - target: {fileID: 7164494881010118412, guid: a47e589561ad72342980f70c742130aa,
        type: 3}
      propertyPath: m_LocalRotation.x
      value: -0.44225287
      objectReference: {fileID: 0}
    - target: {fileID: 7164494881010118412, guid: a47e589561ad72342980f70c742130aa,
        type: 3}
      propertyPath: m_LocalRotation.y
      value: 0.11874839
      objectReference: {fileID: 0}
    - target: {fileID: 7164494881010118412, guid: a47e589561ad72342980f70c742130aa,
        type: 3}
      propertyPath: m_LocalRotation.z
      value: -0.059205774
      objectReference: {fileID: 0}
    - target: {fileID: 7164494881010118412, guid: a47e589561ad72342980f70c742130aa,
        type: 3}
      propertyPath: m_LocalEulerAnglesHint.x
      value: 56.836002
      objectReference: {fileID: 0}
    - target: {fileID: 7164494881010118412, guid: a47e589561ad72342980f70c742130aa,
        type: 3}
      propertyPath: m_LocalEulerAnglesHint.y
      value: 0
      objectReference: {fileID: 0}
    - target: {fileID: 7164494881010118412, guid: a47e589561ad72342980f70c742130aa,
        type: 3}
      propertyPath: m_LocalEulerAnglesHint.z
      value: 45.000004
      objectReference: {fileID: 0}
    - target: {fileID: 7164494881010118415, guid: a47e589561ad72342980f70c742130aa,
        type: 3}
      propertyPath: TekenZichtlijnen
      value: 0
      objectReference: {fileID: 0}
    - target: {fileID: 7164494881010118419, guid: a47e589561ad72342980f70c742130aa,
        type: 3}
      propertyPath: m_Name
      value: GodviewCamera
      objectReference: {fileID: 0}
    - target: {fileID: 8089436527420917118, guid: a47e589561ad72342980f70c742130aa,
        type: 3}
      propertyPath: m_RendererIndex
      value: -1
      objectReference: {fileID: 0}
    m_RemovedComponents:
    - {fileID: 8354288608701459187, guid: a47e589561ad72342980f70c742130aa, type: 3}
  m_SourcePrefab: {fileID: 100100000, guid: a47e589561ad72342980f70c742130aa, type: 3}
--- !u!1 &4093344675420705374 stripped
GameObject:
  m_CorrespondingSourceObject: {fileID: 7164494881010118419, guid: a47e589561ad72342980f70c742130aa,
    type: 3}
  m_PrefabInstance: {fileID: 6603153819222572365}
  m_PrefabAsset: {fileID: 0}
--- !u!4 &4093344675420705345 stripped
Transform:
  m_CorrespondingSourceObject: {fileID: 7164494881010118412, guid: a47e589561ad72342980f70c742130aa,
    type: 3}
  m_PrefabInstance: {fileID: 6603153819222572365}
  m_PrefabAsset: {fileID: 0}
--- !u!1001 &9117539907099740918
PrefabInstance:
  m_ObjectHideFlags: 0
  serializedVersion: 2
  m_Modification:
    m_TransformParent: {fileID: 927853791765686707}
    m_Modifications:
    - target: {fileID: 3920816697506440587, guid: ac8e266ca1d356f48a7046fb9b423adf,
        type: 3}
      propertyPath: m_Name
      value: SnapshotCamera
      objectReference: {fileID: 0}
    - target: {fileID: 4238898323019344752, guid: ac8e266ca1d356f48a7046fb9b423adf,
        type: 3}
      propertyPath: m_RootOrder
      value: 2
      objectReference: {fileID: 0}
    - target: {fileID: 4238898323019344752, guid: ac8e266ca1d356f48a7046fb9b423adf,
        type: 3}
      propertyPath: m_LocalPosition.x
      value: 0
      objectReference: {fileID: 0}
    - target: {fileID: 4238898323019344752, guid: ac8e266ca1d356f48a7046fb9b423adf,
        type: 3}
      propertyPath: m_LocalPosition.y
      value: 0
      objectReference: {fileID: 0}
    - target: {fileID: 4238898323019344752, guid: ac8e266ca1d356f48a7046fb9b423adf,
        type: 3}
      propertyPath: m_LocalPosition.z
      value: 0
      objectReference: {fileID: 0}
    - target: {fileID: 4238898323019344752, guid: ac8e266ca1d356f48a7046fb9b423adf,
        type: 3}
      propertyPath: m_LocalRotation.w
      value: 1
      objectReference: {fileID: 0}
    - target: {fileID: 4238898323019344752, guid: ac8e266ca1d356f48a7046fb9b423adf,
        type: 3}
      propertyPath: m_LocalRotation.x
      value: 0
      objectReference: {fileID: 0}
    - target: {fileID: 4238898323019344752, guid: ac8e266ca1d356f48a7046fb9b423adf,
        type: 3}
      propertyPath: m_LocalRotation.y
      value: 0
      objectReference: {fileID: 0}
    - target: {fileID: 4238898323019344752, guid: ac8e266ca1d356f48a7046fb9b423adf,
        type: 3}
      propertyPath: m_LocalRotation.z
      value: 0
      objectReference: {fileID: 0}
    - target: {fileID: 4238898323019344752, guid: ac8e266ca1d356f48a7046fb9b423adf,
        type: 3}
      propertyPath: m_LocalEulerAnglesHint.x
      value: 0
      objectReference: {fileID: 0}
    - target: {fileID: 4238898323019344752, guid: ac8e266ca1d356f48a7046fb9b423adf,
        type: 3}
      propertyPath: m_LocalEulerAnglesHint.y
      value: 0
      objectReference: {fileID: 0}
    - target: {fileID: 4238898323019344752, guid: ac8e266ca1d356f48a7046fb9b423adf,
        type: 3}
      propertyPath: m_LocalEulerAnglesHint.z
      value: 0
      objectReference: {fileID: 0}
    - target: {fileID: 5193461917430267707, guid: ac8e266ca1d356f48a7046fb9b423adf,
        type: 3}
      propertyPath: m_Antialiasing
      value: 1
      objectReference: {fileID: 0}
    - target: {fileID: 5193461917430267707, guid: ac8e266ca1d356f48a7046fb9b423adf,
        type: 3}
      propertyPath: m_RenderPostProcessing
      value: 1
      objectReference: {fileID: 0}
    - target: {fileID: 5214365360773365056, guid: ac8e266ca1d356f48a7046fb9b423adf,
        type: 3}
      propertyPath: far clip plane
      value: 6000
      objectReference: {fileID: 0}
    - target: {fileID: 5672555903470763752, guid: ac8e266ca1d356f48a7046fb9b423adf,
        type: 3}
      propertyPath: snapshotCamera
      value: 
      objectReference: {fileID: 3951107774055692214}
    - target: {fileID: 5672555903470763752, guid: ac8e266ca1d356f48a7046fb9b423adf,
        type: 3}
      propertyPath: cameraModeChanger
      value: 
      objectReference: {fileID: 927853791765686706}
    m_RemovedComponents: []
  m_SourcePrefab: {fileID: 100100000, guid: ac8e266ca1d356f48a7046fb9b423adf, type: 3}
--- !u!4 &4925695191793394054 stripped
Transform:
  m_CorrespondingSourceObject: {fileID: 4238898323019344752, guid: ac8e266ca1d356f48a7046fb9b423adf,
    type: 3}
  m_PrefabInstance: {fileID: 9117539907099740918}
  m_PrefabAsset: {fileID: 0}
--- !u!20 &3951107774055692214 stripped
Camera:
  m_CorrespondingSourceObject: {fileID: 5214365360773365056, guid: ac8e266ca1d356f48a7046fb9b423adf,
    type: 3}
  m_PrefabInstance: {fileID: 9117539907099740918}
  m_PrefabAsset: {fileID: 0}
